RwithSLING - 3 Select data and plot
…
3.1 Import an Agilent MassHunter CSV file using SLINGtools

data_file_path <- here("data/Testdata_Lipidomics_MHQuant_Detailed_V2.csv")

d_orig <- read_MassHunterCSV(data_file_path)

#> Reading 'Testdata_Lipidomics_MHQuant_Detailed_V2.csv' ... 
#> 
indexing Testdata_Lipidomics_MHQuant_Detailed_V2.csv [======] 2.15GB/s, eta:  0s
                                                                                
Imported  215 samples with 428 transitions

print(d_orig)

#> # A tibble: 92,020 × 14
#>   DataFileName      DataName SampleType AcqTimeStamp        VialPosition Feature
#>   <chr>             <chr>    <chr>      <dttm>              <chr>        <chr>  
#> 1 001_EQC_TQC prer… 001_EQC… EQC        2018-04-12 18:28:00 Vial 2       CE 14:0
#> 2 001_EQC_TQC prer… 001_EQC… EQC        2018-04-12 18:28:00 Vial 2       CE 15:0
#> 3 001_EQC_TQC prer… 001_EQC… EQC        2018-04-12 18:28:00 Vial 2       CE 16:0
#> 4 001_EQC_TQC prer… 001_EQC… EQC        2018-04-12 18:28:00 Vial 2       CE 16:1
#> 5 001_EQC_TQC prer… 001_EQC… EQC        2018-04-12 18:28:00 Vial 2       CE 16:2
#> 6 001_EQC_TQC prer… 001_EQC… EQC        2018-04-12 18:28:00 Vial 2       CE 17:0
#> # … with 92,014 more rows, and 8 more variables: IonPolarity <fct>,
#> #   PrecursorMZ <dbl>, ProductMZ <dbl>, CollisionEnergy <dbl>, RT <dbl>,
#> #   Area <dbl>, FWHM <dbl>, MI <lgl>

3.2 Select, remove, re-order, and rename columns

Use the function select()

d <- d_orig |> 
  dplyr::select(AnalysisID = "DataFileName", 
                QCtype = SampleType,
                Compound = Feature, 
                Intensity = Area,
                RT,
                PrecursorMZ)
print(d)

#> # A tibble: 92,020 × 6
#>   AnalysisID              QCtype Compound Intensity    RT PrecursorMZ
#>   <chr>                   <chr>  <chr>        <dbl> <dbl>       <dbl>
#> 1 001_EQC_TQC prerun 01.d EQC    CE 14:0       1532  6.98        615.
#> 2 001_EQC_TQC prerun 01.d EQC    CE 15:0        515  7.13        629.
#> 3 001_EQC_TQC prerun 01.d EQC    CE 16:0     127953  7.16        643.
#> 4 001_EQC_TQC prerun 01.d EQC    CE 16:1      40374  7.00        641.
#> 5 001_EQC_TQC prerun 01.d EQC    CE 16:2       1340  6.82        639.
#> 6 001_EQC_TQC prerun 01.d EQC    CE 17:0       7227  7.22        657.
#> # … with 92,014 more rows
…
#> # A tibble: 0 × 6
#> # … with 6 variables: AnalysisID <chr>, QCtype <chr>, Compound <chr>,
#> #   Intensity <dbl>, RT <dbl>, PrecursorMZ <dbl>

d |> filter(AnalysisID == "149-bQC_PQC17.d", Compound == "TG 48:1 [-18:1]")

#> # A tibble: 0 × 6
#> # … with 6 variables: AnalysisID <chr>, QCtype <chr>, Compound <chr>,
#> #   Intensity <dbl>, RT <dbl>, PrecursorMZ <dbl>

d |> filter(QCtype == "BQC")

#> # A tibble: 10,272 × 6
#>   AnalysisID      QCtype Compound Intensity    RT PrecursorMZ
#>   <chr>           <chr>  <chr>        <dbl> <dbl>       <dbl>
#> 1 018_BQC_PQC01.d BQC    CE 14:0       1473  6.98        615.
#> 2 018_BQC_PQC01.d BQC    CE 15:0        744  7.07        629.
#> 3 018_BQC_PQC01.d BQC    CE 16:0     111189  7.16        643.
#> 4 018_BQC_PQC01.d BQC    CE 16:1      52297  6.98        641.
#> 5 018_BQC_PQC01.d BQC    CE 16:2       2502  6.83        639.
#> 6 018_BQC_PQC01.d BQC    CE 17:0       9178  7.22        657.
#> # … with 10,266 more rows

d |> filter(QCtype == "BQC" | QCtype == "TQC" )

#> # A tibble: 17,120 × 6
#>   AnalysisID      QCtype Compound Intensity    RT PrecursorMZ
#>   <chr>           <chr>  <chr>        <dbl> <dbl>       <dbl>
#> 1 016_TQC_TQC01.d TQC    CE 14:0       1248  6.98        615.
#> 2 016_TQC_TQC01.d TQC    CE 15:0       1008  7.07        629.
#> 3 016_TQC_TQC01.d TQC    CE 16:0     167626  7.16        643.
#> 4 016_TQC_TQC01.d TQC    CE 16:1      42972  7.01        641.
#> 5 016_TQC_TQC01.d TQC    CE 16:2       1966  6.83        639.
#> 6 016_TQC_TQC01.d TQC    CE 17:0       8618  7.20        657.
#> # … with 17,114 more rows

d |> filter(QCtype == "BQC" & QCtype == "TQC" )

#> # A tibble: 0 × 6
#> # … with 6 variables: AnalysisID <chr>, QCtype <chr>, Compound <chr>,
#> #   Intensity <dbl>, RT <dbl>, PrecursorMZ <dbl>

d |> filter(QCtype %in% c("BQC", "TQC"))

#> # A tibble: 17,120 × 6
#>   AnalysisID      QCtype Compound Intensity    RT PrecursorMZ
#>   <chr>           <chr>  <chr>        <dbl> <dbl>       <dbl>
#> 1 016_TQC_TQC01.d TQC    CE 14:0       1248  6.98        615.
#> 2 016_TQC_TQC01.d TQC    CE 15:0       1008  7.07        629.
#> 3 016_TQC_TQC01.d TQC    CE 16:0     167626  7.16        643.
#> 4 016_TQC_TQC01.d TQC    CE 16:1      42972  7.01        641.
#> 5 016_TQC_TQC01.d TQC    CE 16:2       1966  6.83        639.
#> 6 016_TQC_TQC01.d TQC    CE 17:0       8618  7.20        657.
#> # … with 17,114 more rows
…
3.5 Split column to get lipid clas

d_plot_wclass <- d_plot |> 
  separate(
    col = Compound,
    into = c("lipidclass", "chain"), 
    sep = " ",
    extra = "merge", 
    remove = FALSE) 
    
d_plot_wclass

#> # A tibble: 428 × 8
#>   AnalysisID      QCtype Compound lipidclass chain Intensity    RT PrecursorMZ
#>   <chr>           <chr>  <chr>    <chr>      <chr>     <dbl> <dbl>       <dbl>
#> 1 066_BQC_PQC07.d BQC    CE 14:0  CE         14:0       1152  6.98        615.
#> 2 066_BQC_PQC07.d BQC    CE 15:0  CE         15:0        984  7.06        629.
#> 3 066_BQC_PQC07.d BQC    CE 16:0  CE         16:0      93268  7.16        643.
#> 4 066_BQC_PQC07.d BQC    CE 16:1  CE         16:1      51054  7.01        641.
#> 5 066_BQC_PQC07.d BQC    CE 16:2  CE         16:2       1870  6.83        639.
#> 6 066_BQC_PQC07.d BQC    CE 17:0  CE         17:0       9050  7.22        657.
#> # … with 422 more rows
…
