RwithSLING - 2 Import data into R
…
Factor
<fct>
Categorical data
BQC; TQC; SPL

Moreover there are data and time types, i.e. date <dt>, time <tm> and datetime <dttm>

You can print tables in the console or in R notebook (.Rmd), which will also show the column types:

d_wide
#> # A tibble: 215 × 430
#>   DataFileme     AcqTimeStamp        SampleType VialPosition `CE 14:0` `CE 15:0`
#>   <chr>          <dttm>              <chr>      <chr>            <dbl>     <dbl>
#> 1 001_EQC_TQC p… 2018-04-12 18:28:00 Sample     Vial 2            1532       515
#> 2 002_EQC_TQC p… 2018-04-12 18:39:00 Sample     Vial 2            1029       911
#> 3 003_EQC_TQC p… 2018-04-12 18:51:00 Sample     Vial 2             685       649
#> 4 004_EQC_TQC p… 2018-04-12 19:02:00 Sample     Vial 2            1283       576
#> 5 005_EQC_TQC p… 2018-04-12 19:13:00 Sample     Vial 2             946       732
#> 6 006_EBLK_Extr… 2018-04-12 19:25:00 Sample     P1-A1              132        75
#> # … with 209 more rows, and 424 more variables: `CE 16:0` <dbl>,
#> #   `CE 16:1` <dbl>, `CE 16:2` <dbl>, `CE 17:0` <dbl>, `CE 17:1` <dbl>,
#> #   `CE 18:0` <dbl>, `CE 18:1` <dbl>, `CE 18:1 d7 (ISTD)` <dbl>, …
…
                          trim_ws = TRUE, 
                          na = c("ND", "LOD"))
#> Warning: One or more parsing issues, see `problems()` for details
#> Rows: 215 Columns: 432
#> ── Column specification ────────────────────────────────────────────────────────
#> Delimiter: ","
#> chr    (3): DataFileNDme, SampleType, VialPosition
#> dbl  (425): CE 14:0, CE 15:0, CE 16:0, CE 16:1, CE 17:0, CE 17:1, CE 18:0, C...
#> lgl    (3): CE 16:2, Cer d18:2/24:0, LPC 16:0
#> dttm   (1): AcqTimeStamp
#> 
#> ℹ Use `spec()` to retrieve the full column specification for this data.
#> ℹ Specify the column types or set `show_col_types = FALSE` to quiet this message.
print(d_wide)
#> # A tibble: 215 × 432
#>   DataFileNDme   AcqTimeStamp        SampleType VialPosition `CE 14:0` `CE 15:0`
#>   <chr>          <dttm>              <chr>      <chr>            <dbl>     <dbl>
#> 1 001_EQC_TQC p… 2018-04-12 18:28:00 Sample     Vial 2            1532       515
#> 2 002_EQC_TQC p… 2018-04-12 18:39:00 Sample     Vial 2            1029        NA
#> 3 003_EQC_TQC p… 2018-04-12 18:51:00 Sample     Vial 2             685       649
#> 4 004_EQC_TQC p… 2018-04-12 19:02:00 Sample     Vial 2            1283       576
#> 5 005_EQC_TQC p… 2018-04-12 19:13:00 Sample     Vial 2             946       732
#> 6 006_EBLK_Extr… 2018-04-12 19:25:00 Sample     P1-A1              132        NA
#> # … with 209 more rows, and 426 more variables: `CE 16:0` <dbl>,
#> #   `CE 16:1` <dbl>, `CE 16:2` <lgl>, `CE 17:0` <dbl>, `CE 17:1` <dbl>,
#> #   `CE 18:0` <dbl>, `CE 18:1` <dbl>, `CE 18:1 d7 (ISTD)` <dbl>, …

Missing values can be a source of difficult to trace erros. Defined and careful dealing with missing values is therefore important. Also note, that there is no way to have different types of missing values in the standard R data table formats.

2.2 Importing an Excel table

Importing Excel is easy too via the help of external packages such as readxl. Note that you will need to define which sheet to import (e.g. below Sheet1). The same considerations about missing values and white spaces as detailed before apply here too.

data_file_path <- here("data/Testdata_Lipidomics_flat_wide.xlsx")
d_wide <- readxl::read_xlsx(data_file_path,
                            sheet = "Sheet1",
                            trim_ws = TRUE, 
                            na = c("ND"))
print(d_wide)
#> # A tibble: 215 × 432
#>   DataFileName          AcqTimeStamp SampleType VialPosition `CE 14:0` `CE 15:0`
#>   <chr>                 <chr>        <chr>      <chr>            <dbl>     <dbl>
#> 1 001_EQC_TQC prerun 0… 2018-04-12T… Sample     Vial 2            1532       515
#> 2 002_EQC_TQC prerun 0… 2018-04-12T… Sample     Vial 2            1029       911
#> 3 003_EQC_TQC prerun 0… 2018-04-12T… Sample     Vial 2             685       649
#> 4 004_EQC_TQC prerun 0… 2018-04-12T… Sample     Vial 2            1283       576
#> 5 005_EQC_TQC prerun 0… 2018-04-12T… Sample     Vial 2             946       732
#> 6 006_EBLK_Extracted B… 2018-04-12T… Sample     P1-A1              132        NA
#> # … with 209 more rows, and 426 more variables: `CE 16:0` <dbl>,
#> #   `CE 16:1` <dbl>, `CE 16:2` <dbl>, `CE 17:0` <chr>, `CE 17:1` <dbl>,
#> #   `CE 18:0` <dbl>, `CE 18:1` <dbl>, `CE 18:1 d7 (ISTD)` <dbl>, …
…
